{
	"class" : {
		"canonicalName" : "JanStruz 4/17/2016 19:37",
		"supports:" : "JanStruz 4/17/2016 19:21" },
	"instance" : {
		"build" : "JanStruz 4/17/2016 21:17",
		"copyArtefacts" : "JanStruz 4/17/2016 20:57",
		"defineAsTarget" : "JanStruz 4/17/2016 21:10",
		"defineGlobalTargets" : "JanStruz 6/1/2016 22:46",
		"download" : "JanStruz 4/17/2016 19:28",
		"gccObjects" : "JanStruz 4/17/2016 19:34",
		"libraryFileName" : "JanStruz 4/17/2016 20:52",
		"setVariables" : "JanStruz 4/17/2016 21:12",
		"targetForLinking" : "JanStruz 4/17/2016 21:03",
		"unpack" : "JanStruz 4/17/2016 20:40",
		"unpackedDirName" : "JanStruz 4/17/2016 20:05" } }
