{
	"category" : "VMMakerStatic-Plugins",
	"classinstvars" : [
		 ],
	"classvars" : [
		 ],
	"commentStamp" : "JanStruz 3/8/2016 17:59",
	"instvars" : [
		 ],
	"name" : "VMStaticSupportPlugin",
	"pools" : [
		 ],
	"super" : "SmartSyntaxInterpreterPlugin",
	"type" : "normal" }
