{
	"class" : {
		"initializePrimitiveTable" : "JanStruz 2/16/2016 15:55",
		"mustBeGlobal:" : "JanStruz 2/16/2016 15:55",
		"preambleCCode" : "JanStruz 2/16/2016 15:55",
		"primitivesClass" : "JanStruz 2/16/2016 15:56" },
	"instance" : {
		"allocateMemory:minimum:imageFile:headerSize:" : "JanStruz 2/16/2016 15:55",
		"checkAllocFiller" : "JanStruz 2/16/2016 15:55",
		"checkImageVersionFrom:startingAt:" : "JanStruz 2/16/2016 15:55",
		"flush" : "JanStruz 2/16/2016 15:55",
		"getLongFromFile:swap:" : "JanStruz 2/16/2016 15:55",
		"initStackPagesAndInterpret" : "JanStruz 2/16/2016 16:19",
		"minimumUnusedHeadroom" : "JanStruz 2/16/2016 15:55",
		"print:" : "JanStruz 2/16/2016 15:55",
		"printHex:" : "JanStruz 2/16/2016 15:55",
		"valloc:" : "JanStruz 2/16/2016 15:55",
		"voidVMStateForSnapshotFlushingExternalPrimitivesIf:" : "JanStruz 2/16/2016 16:21" } }
