{
	"category" : "SqueakNOS-VM",
	"classinstvars" : [
		 ],
	"classvars" : [
		 ],
	"commentStamp" : "",
	"instvars" : [
		 ],
	"name" : "PharoNOSCog",
	"pools" : [
		 ],
	"super" : "CoInterpreter",
	"type" : "normal" }
