{
	"class" : {
		"canonicalName" : "JanStruz 3/7/2016 15:16",
		"supports:" : "JanStruz 3/7/2016 15:16" },
	"instance" : {
		"allTargetsForLinking" : "JanStruz 3/31/2016 18:58",
		"archiveMD5Sum" : "JanStruz 3/7/2016 15:49",
		"build" : "JanStruz 4/3/2016 17:16",
		"configurationFlags" : "JanStruz 4/3/2016 19:21",
		"copyArtefacts" : "JanStruz 3/7/2016 15:43",
		"defineAsTarget" : "JanStruz 3/7/2016 15:37",
		"defineGlobalTargets" : "JanStruz 3/31/2016 11:18",
		"downloadURL" : "JanStruz 3/7/2016 15:13",
		"includeDir" : "JanStruz 3/7/2016 15:15",
		"libraryFileName" : "JanStruz 3/7/2016 15:14",
		"setVariables" : "JanStruz 3/7/2016 16:37",
		"targetForLinking" : "JanStruz 3/31/2016 11:18",
		"unpackedDirName" : "JanStruz 3/7/2016 15:43" } }
