{
	"class" : {
		"canonicalName" : "JanStruz 3/6/2016 21:26",
		"supports:" : "JanStruz 3/6/2016 21:40" },
	"instance" : {
		"archiveMD5Sum" : "JanStruz 3/6/2016 21:26",
		"build" : "JanStruz 4/17/2016 18:26",
		"configurationFlags" : "JanStruz 3/7/2016 13:12",
		"copyArtefacts" : "JanStruz 4/17/2016 18:26",
		"defineAsTarget" : "JanStruz 4/17/2016 19:02",
		"defineGlobalTargets" : "JanStruz 6/1/2016 22:48",
		"dependencies" : "JanStruz 4/5/2016 19:16",
		"downloadURL" : "JanStruz 3/6/2016 21:26",
		"includeDir" : "JanStruz 3/6/2016 21:26",
		"libcName" : "JanStruz 5/21/2016 00:54",
		"libraryFileName" : "JanStruz 3/6/2016 21:36",
		"setVariables" : "JanStruz 4/17/2016 18:48",
		"targetForLinking" : "JanStruz 3/7/2016 13:27",
		"unpackedDirName" : "JanStruz 3/6/2016 21:26" } }
