{
	"class" : {
		"declareCVarsIn:" : "gc 11/8/2010 18:51" },
	"instance" : {
		"primVMBiosInformationPosition" : "gc 7/27/2010 16:10",
		"primitiveDisableConsole" : "GuidoChari 12/28/2010 16:35",
		"primitiveEnableConsole" : "GuidoChari 12/28/2010 16:35",
		"primitiveInDebugString" : "Pocho 6/12/2010 00:10",
		"primitiveInPortByte:" : "gera 5/9/2006 13:29",
		"primitiveInPortByte:stringLength:" : "gera 11/14/2008 20:45",
		"primitiveInPortDword:" : "gera 6/30/2006 19:50",
		"primitiveInPortDword:stringLength:" : "gera 11/14/2008 20:45",
		"primitiveInPortWord:" : "gera 5/9/2006 13:30",
		"primitiveInPortWord:stringLength:" : "gera 11/14/2008 20:45",
		"primitiveMultibootInfoFromGrub" : "Pocho 6/12/2010 00:20",
		"primitiveOFWCallout:" : "gera 9/21/2008 21:16",
		"primitiveOutPort:byte:" : "gera 5/9/2006 13:30",
		"primitiveOutPort:byteString:" : "gera 11/14/2008 20:46",
		"primitiveOutPort:dword:" : "gera 6/24/2006 21:01",
		"primitiveOutPort:dwordString:" : "gera 11/14/2008 20:46",
		"primitiveOutPort:word:" : "gera 5/9/2006 13:30",
		"primitiveOutPort:wordString:" : "gera 11/14/2008 20:46",
		"primitivePullDebugString" : "Pocho 6/14/2010 16:16",
		"primitivePushDebugString:" : "GuidoChari 3/16/2011 14:28",
		"primitivePutIn32bitRegisterCr0" : "GuidoChari 3/19/2011 17:16",
		"primitivePutIn32bitRegisterCr3" : "GuidoChari 3/19/2011 17:16",
		"primitiveRead32bitRegisterCr0" : "JavierPimas 12/18/2010 14:25",
		"primitiveRead32bitRegisterCr3" : "JavierPimas 12/18/2010 14:26",
		"primitiveReadStringLength:fromMemoryAt:" : "gera 5/9/2006 15:13",
		"primitiveRegisterSemaphoreIndex:forIRQ:" : "gera 5/8/2006 02:55",
		"primitiveShutdownComputer" : "GuidoChari 3/11/2011 06:51",
		"primitiveVMEndPosition" : "Pocho 6/1/2010 01:56",
		"primitiveWriteString:toMemoryAt:" : "gera 5/9/2006 13:30" } }
