{
	"class" : {
		"isActiveVMMakerClassFor:" : "JanStruz 4/30/2016 14:09" },
	"instance" : {
		"generateMainVM" : "JanStruz 4/16/2016 18:41",
		"platformRootDirectoryName:" : "JanStruz 1/17/2016 19:42",
		"sourceDirectoryName:" : "JanStruz 1/17/2016 19:41" } }
